{
  "full_name": "Eric Devost",
  "email": "ericdevost@gmail.com",
  "project_name": "your-project-name",
  "project_slug": "{{ cookiecutter.project_name.lower().replace(' ', '_') }}",
  "project_short_description": "Short description of your project",
  "project_url": "Your project url on git",
  "build_url": "Where is your documentation builded ?",
  "version": "1.0",
  "extra_index_url": "",
  "create_author_file": "y",
    "project_license": ["FrimaStudio","Shotgun"]
}
